<svg xmlns="http://www.w3.org/2000/svg" viewBox="0 0 8 9">
    <path
        d="M8 4.501c0 .299-.16.575-.421.727L1.303 8.879l-.006.004h-.004a.87.87 0 0 1-.86.007A.843.843 0 0 1 0 8.158V.844C0 .541.165.261.432.111a.87.87 0 0 1 .861.006h.004l.006.004 6.276 3.652A.841.841 0 0 1 8 4.501z"
        fill="#1A8CFF"/>
</svg>
